
digraph g {
        graph [
	    rankdir = "LR"
	];
	node [
	    fontsize = "12"
	    fontname = "Courier"
	    shape = "ellipse"
	];
	edge[];
	"bugs" [
        label="bugs | Total Classes: 1"
	shape="record"
	color=".99 1 .9"
	style=filled
    ];
    "client" [
        label="client | Total Classes: 19"
	shape="record"
	color=".99 0.25 .9"
	style=filled
    ];
    "client" -> "bugs"
    "client" -> "events"
    "client" -> "events.external"
    "client" -> "events.external.peer"
    "client" -> "events.internal"
    "client" -> "imageview.views"
    "client" -> "org.json.simple"
    "client" -> "org.json.simple.parser"
    "client" -> "shapes"
    "events" [
        label="events | Total Classes: 3"
	shape="record"
	color=".99 0.17 .9"
	style=filled
    ];
    "events" -> "client"
    "events" -> "events.external"
    "events" -> "events.internal"
    "events.external" [
        label="events.external | Total Classes: 7"
	shape="record"
	color=".99 0.75 .9"
	style=filled
    ];
    "events.external" -> "events"
    "events.external.peer" [
        label="events.external.peer | Total Classes: 8"
	shape="record"
	color=".99 0.12 .9"
	style=filled
    ];
    "events.external.peer" -> "client"
    "events.external.peer" -> "events.external"
    "events.external.peer" -> "org.json.simple"
    "events.internal" [
        label="events.internal | Total Classes: 9"
	shape="record"
	color=".99 0.67 .9"
	style=filled
    ];
    "events.internal" -> "events"
    "gui" [
        label="gui | Total Classes: 3"
	shape="record"
	color=".99 0.33 .9"
	style=filled
    ];
    "gui" -> "client"
    "gui" -> "shapes"
    "gui.msgDialog" [
        label="gui.msgDialog | Total Classes: 3"
	shape="record"
	color=".99 1 .9"
	style=filled
    ];
    "imageview" [
        label="imageview | Total Classes: 2"
	shape="record"
	color=".99 0.5 .9"
	style=filled
    ];
    "imageview" -> "client"
    "imageview.views" [
        label="imageview.views | Total Classes: 1"
	shape="record"
	color=".99 0.25 .9"
	style=filled
    ];
    "imageview.views" -> "client"
    "imageview.views" -> "gui"
    "imageview.views" -> "imageview"
    "org.json.simple" [
        label="org.json.simple | Total Classes: 6"
	shape="record"
	color=".99 0.47 .9"
	style=filled
    ];
    "org.json.simple" -> "org.json.simple.parser"
    "org.json.simple.parser" [
        label="org.json.simple.parser | Total Classes: 6"
	shape="record"
	color=".99 0.42 .9"
	style=filled
    ];
    "org.json.simple.parser" -> "org.json.simple"
    "server" [
        label="server | Total Classes: 6"
	shape="record"
	color=".99 0 .9"
	style=filled
    ];
    "server" -> "org.json.simple"
    "server" -> "org.json.simple.parser"
    "shapes" [
        label="shapes | Total Classes: 3"
	shape="record"
	color=".99 1 .9"
	style=filled
    ];
    
}
